<?xml version="1.0" encoding="UTF-8"?>
<!-- 
    UBL syntax binding to the T01 for NHS
    Author: Celeris Group, Roberto Cisternino
    Timestamp: 2018-04-15 16:27:00
-->
<schema xmlns="http://purl.oclc.org/dsdl/schematron" xmlns:cbc="urn:oasis:names:specification:ubl:schema:xsd:CommonBasicComponents-2" xmlns:cac="urn:oasis:names:specification:ubl:schema:xsd:CommonAggregateComponents-2" xmlns:UBL="urn:oasis:names:specification:ubl:schema:xsd:Order-2" queryBinding="xslt2">
	<title>BIIRULES  T01 bound to UBL</title>
	<ns prefix="cbc" uri="urn:oasis:names:specification:ubl:schema:xsd:CommonBasicComponents-2"/>
	<ns prefix="cac" uri="urn:oasis:names:specification:ubl:schema:xsd:CommonAggregateComponents-2"/>
	<ns prefix="ubl" uri="urn:oasis:names:specification:ubl:schema:xsd:Order-2"/>
	<ns prefix="xs" uri="http://www.w3.org/2001/XMLSchema"/>
	<phase id="BIIRULEST01_phase">
		<active pattern="UBL-T01"/>
	</phase>
	<phase id="BII_codelist_phase">
		<active pattern="CodesT01"/>
	</phase>
	
	<phase id="OPENPEPPOLT01_phase">
		<active pattern="OPENPEPPOL-UBL-T01"/>
	</phase>
	<phase id="OPENPEPPOL_codelist_phase">
		<active pattern="OPENPEPPOL-CodesT01"/>
	</phase>
	
	<phase id="NHS_CheckOrderModel_phase">
		<active pattern="NHS-CheckorderingModel"/>
	</phase>
	
	<!-- Abstract CEN BII patterns -->
	<!-- ========================= -->
	<include href="BII RULES/abstract/BIIRULES-T01.sch"/>
	<!-- Data Binding parameters -->
	<!-- ======================= -->
	<include href="BII RULES/UBL/BIIRULES-UBL-T01.sch"/>
	<!-- Code Lists Binding rules -->
	<!-- ======================== -->
	<include href="BII RULES/codelist/BIIRULESCodesT01-UBL.sch"/>
	
	<!-- Abstract OPENPEPPOL patterns -->
	<!-- ========================= -->
	<include href="OPENPEPPOL/abstract/OPENPEPPOL-T01.sch"/>
	<!-- Data Binding parameters -->
	<!-- ======================= -->
	<include href="OPENPEPPOL/UBL/OPENPEPPOL-UBL-T01.sch"/>
	<!-- Code Lists Binding rules -->
	<!-- ======================== -->
	<include href="OPENPEPPOL/codelist/OPENPEPPOLCodesT01-UBL.sch"/>
	
	<!-- NHS rules -->
	<!-- ======================== -->
	<include href="NHS/NHS-UBL-T01.sch"/>
	
</schema>
